[
    {
        "id": 26514515,
        "name": "Karel Novák",
        "wallet": {
            "balance": 300,
            "currency": "CZK",
            "credit card": "4766-4654-3243-3242"
        },
        "library": {
            "id": 1564846,
            "games": [],
            "software": []
        },
        "friend libraries": []
    },
    {
        "id": 52651465,
        "name": "Alexandr Rapustin",
        "wallet": {
            "balance": 1000,
            "currency": "EUR",
            "credit card": "4766-4654-2093-2342"
        },
        "library": {
            "id": "alex_lib",
            "games": [
                131
            ],
            "software": [
                78, 214
            ]
        },
        "friend libraries": [1564846]
    }
]